9112:
2.2
2.9
3.2
3.7
3
3.2
2.7
3.3
2.7
2.8
3.5
3.5
3.2
3.9
2.5
4
3.1
2.7
2.6
3.6
15395:
3.7
15396:
4.1
4.8
5
4
3.6
3.9
3.8
12689:
3.5
4.2
4.7
3.2
3.8
4.2
4.1
4.1
3
3.8
3.8
4.1
3.6
3.9
12688:
3.2
2.5
3.3
2.8
4.3
3.3
2.8
3.8
2.9
2
3.1
3.3
2.9
4.2
2.5
3.2
3.4
2.6
3.5
3.6
3.2
2.5
3.6
2.9
4.2
2.9
3.3
2.5
2.8
2.8
3.3
2.4
2.1
3.1
2.9
2.9
3.9
3.7
1.9
3
3.4
3.4
2.9
3.5
2.5
2.4
3.8
3.5
3.3
3.1
3
3.2
3.1
2.7
3.9
3.5
2.8
3
3
3.8
3.5
3.2
8597:
2.6
2.6
2.4
2.7
3
3.1
2.2
2.3
2.8
8598:
3.7
3.4
4.2
3.4
3.8
3.4
3.1
2.3
3.4
3.1
3.6
3.4
2.9
4.3
3.3
2.9
3
2.7
3.8
3.5
3.4
2.4
3.2
2.6
3.3
3.4
4.1
3.6
2.6
3.5
3.6
4.1
8599:
4.7
3.8
4.6
4
4.8
3.4
3.7
4.2
3.1
4.6
4.5
3.1
3.5
3.2
3.5
3.6
2.6
8604:
3.6
3.2
3.5
3
3.2
3.5
8605:
3.9
2.9
4.4
3.7
3.6
4
3.1
3.4
4.1
3.8
3.6
2.8
4.2
4
3.6
3.3
3.8
4.5
3.8
4
4
8611:
1.9
2.2
2.3
RMSE: 0.95
